{
  "slug": "fan-snowflake",
  "page_type": "collab",
  "fields": {
    "tomain": false,
    "thumb": "https://cdn.buttercms.com/r4Q2oIjvTVaKPBpJDRoV",
    "headline": "Фанбарьер-снежинка",
    "description": "Идейные соображения высшего порядка, а также сложившаяся структура организации в значительной степени обуславливает создание модели развития. Значимость этих проблем настолько очевидна, что реализация намеченных плановых заданий представляет собой интересный эксперимент проверки позиций, занимаемых участниками в отношении поставленных задач. ",
    "slide": [
      {
        "image": "https://cdn.buttercms.com/r4Q2oIjvTVaKPBpJDRoV"
      }
    ],
    "author": "Василина Харламова",
    "language": "ru",
    "link_url": "",
    "link_text": ""
  }
}