<?xml version="1.0" standalone="no"?>
<!DOCTYPE svg PUBLIC "-//W3C//DTD SVG 20010904//EN"
 "http://www.w3.org/TR/2001/REC-SVG-20010904/DTD/svg10.dtd">
<svg version="1.0" xmlns="http://www.w3.org/2000/svg"
 width="300.000000pt" height="300.000000pt" viewBox="0 0 300.000000 300.000000"
 preserveAspectRatio="xMidYMid meet">
<metadata>
Created by potrace 1.11, written by Peter Selinger 2001-2013
</metadata>
<g transform="translate(0.000000,300.000000) scale(0.100000,-0.100000)"
fill="#000000" stroke="none">
<path d="M285 2846 c-102 -25 -199 -100 -243 -190 -32 -64 -37 -89 -37 -187 1
-73 5 -94 29 -143 57 -116 160 -197 271 -212 190 -26 350 63 422 235 24 56 28
169 9 233 -20 71 -76 154 -131 196 -88 67 -213 93 -320 68z"/>
<path d="M1245 2846 c-107 -26 -199 -100 -250 -203 -27 -52 -30 -68 -30 -158
0 -93 2 -105 32 -166 39 -79 102 -140 181 -177 48 -23 73 -27 152 -29 90 -2
99 0 167 33 295 142 277 569 -29 686 -64 24 -156 30 -223 14z"/>
<path d="M2188 2845 c-244 -67 -355 -360 -216 -570 133 -201 431 -223 592 -44
180 199 89 535 -166 610 -54 16 -160 18 -210 4z"/>
<path d="M324 1879 c-119 -15 -232 -97 -286 -207 -56 -112 -48 -259 18 -363
117 -185 380 -234 542 -102 68 56 82 73 116 143 28 59 31 74 31 160 -1 84 -4
102 -30 155 -72 148 -230 235 -391 214z"/>
<path d="M1278 1879 c-116 -17 -227 -99 -280 -207 -31 -62 -33 -74 -33 -167 1
-90 3 -106 29 -157 136 -271 500 -290 663 -35 35 55 56 150 51 227 -15 210
-219 370 -430 339z"/>
<path d="M2231 1878 c-251 -37 -393 -307 -281 -534 40 -81 98 -139 180 -178
58 -27 75 -31 155 -31 76 0 99 4 147 27 77 36 122 73 163 133 181 272 -42 630
-364 583z"/>
<path d="M280 914 c-111 -30 -191 -97 -243 -203 -29 -60 -32 -74 -32 -161 0
-88 3 -101 33 -162 141 -287 543 -280 681 12 22 47 26 69 26 150 0 88 -3 101
-33 162 -80 163 -264 249 -432 202z"/>
<path d="M1292 919 c-99 -19 -207 -90 -257 -170 -54 -85 -72 -199 -48 -304 36
-154 142 -252 318 -292 25 -5 132 -4 164 2 76 14 160 57 201 100 l24 25 -49
50 c-27 28 -55 50 -63 50 -7 0 -24 -11 -37 -24 -38 -38 -106 -59 -167 -53 -78
8 -84 10 -132 44 -109 77 -123 259 -26 360 82 88 247 89 338 3 l23 -22 27 23
c65 58 82 78 77 91 -10 24 -107 88 -159 104 -59 18 -172 25 -234 13z"/>
<path d="M2278 925 c-2 -2 -25 -5 -51 -8 -96 -12 -191 -70 -248 -153 -43 -63
-60 -118 -64 -207 -10 -245 158 -413 402 -402 190 8 337 156 350 353 15 214
-118 382 -325 410 -34 5 -63 8 -64 7z m127 -187 c117 -74 134 -267 32 -372
-77 -81 -192 -88 -277 -17 -128 105 -104 330 43 405 49 25 151 17 202 -16z"/>
<path d="M2840 368 c-14 -7 -33 -30 -43 -51 -16 -31 -17 -42 -7 -72 33 -100
171 -100 199 -1 12 45 4 80 -24 106 -28 26 -91 35 -125 18z"/>
</g>
</svg>
